-8.321455398131632819e+00 -3.187416464137831085e+00 6.426817360880299645e+00 4.582381715254548737e-01 -6.742831961778823491e+00 2.481221205400617080e+00 -4.311245576157409332e+00 -9.498950388239872922e+00 4.413619015169915727e+00 -2.673385231314577837e+00 3.216418196936219331e+00 -9.234111921881329010e+00
-8.321455398131632819e+00 -3.187416464137831085e+00 6.426817360880299645e+00 4.582381715254548737e-01 -6.742831961778823491e+00 2.481221205400617080e+00 -4.311245576157409332e+00 -9.498950388239872922e+00 4.413619015169915727e+00 -9.641041407404635777e-01 3.216418196936219331e+00 -9.234111921881329010e+00
-7.420000746861745711e+00 1.492103113340572662e+00 7.775231130034395477e+00 4.582381715254548737e-01 -6.742831961778823491e+00 2.481221205400617080e+00 1.012325809429874823e+00 -9.498950388239872922e+00 4.413619015169915727e+00 -9.641041407404635777e-01 3.216418196936219331e+00 -9.234111921881329010e+00
-8.321455398131632819e+00 1.492103113340572662e+00 7.429412324649533161e+00 4.582381715254548737e-01 -6.742831961778823491e+00 2.481221205400617080e+00 1.012325809429874823e+00 -9.498950388239872922e+00 4.413619015169915727e+00 -9.641041407404635777e-01 3.216418196936219331e+00 -9.234111921881329010e+00
-8.321455398131632819e+00 1.492103113340572662e+00 6.426817360880299645e+00 4.582381715254548737e-01 -6.742831961778823491e+00 2.481221205400617080e+00 1.012325809429874823e+00 -9.498950388239872922e+00 4.413619015169915727e+00 -9.641041407404635777e-01 3.216418196936219331e+00 -9.234111921881329010e+00
