5.986361113998988515e+00 -5.517301919207831418e+00 4.990101093539696109e+00 2.086718861081598320e+00 2.273874071444444311e+00 -1.333211923053621462e+00 9.212902527794248897e+00 5.836853984887099500e+00 -7.575671329265835752e+00 -7.201825698804813491e+00 -6.016677513405985778e+00 6.522511746597668747e+00
5.986361113998988515e+00 -5.517301919207831418e+00 9.711485420276240177e+00 1.535523137667455629e+00 2.273874071444444311e+00 -1.333211923053621462e+00 7.845633174329162074e+00 5.836853984887099500e+00 -4.199136263838774141e+00 -7.201825698804813491e+00 -5.096030122947723839e+00 6.522511746597668747e+00
5.986361113998988515e+00 -5.517301919207831418e+00 9.711485420276240177e+00 1.535523137667455629e+00 2.273874071444444311e+00 -1.333211923053621462e+00 7.845633174329162074e+00 5.836853984887099500e+00 -4.199136263838774141e+00 -7.201825698804813491e+00 -5.096030122947723839e+00 6.522511746597668747e+00
5.986361113998988515e+00 -5.517301919207831418e+00 4.990101093539696109e+00 2.086718861081598320e+00 2.273874071444444311e+00 -1.333211923053621462e+00 9.212902527794248897e+00 5.836853984887099500e+00 -7.907971791019907215e+00 -7.201825698804813491e+00 -6.016677513405985778e+00 6.522511746597668747e+00
5.986361113998988515e+00 -5.517301919207831418e+00 4.990101093539696109e+00 2.086718861081598320e+00 2.273874071444444311e+00 -1.333211923053621462e+00 9.212902527794248897e+00 5.836853984887099500e+00 -7.575671329265835752e+00 -7.201825698804813491e+00 -6.016677513405985778e+00 6.522511746597668747e+00
